{
  "$schema": "http://json-schema.org/draft-04/schema#",
  "$ref": "#/definitions/inputFiles",
  "definitions": {"inputFiles": {
    "description": "This parameter represents the name for the list of files. Allowed extensions are .tif, .tiff, .pdf and .zip.",
    "additionalProperties": true,
    "type": "object"
  }}
}